1 10 20
100 200 125
201 210 89
900 1000 174
1 2 2
1 3 8
1 100 119
1 200 125
90000 100000 333
500 756 171
20 400 144
560 720 171
10000 10100 224
999998 999999 259
999698 999999 259
85636 85685 302
83669 83615 289
42722 42767 195
40331 40268 244
50862 50962 203
56658 56632 260
84153 84167 227
19868 19770 243
41333 41419 226
4278 4280 78
15494 15471 178
42922 42960 195
90980 90917 209
12571 12572 108
59436 59392 167
99452 99380 191
81864 81805 183
43096 43142 195
35749 35831 218
97132 97056 253
8931 8874 185
66173 66114 268
49676 49652 159
23087 23181 176
25976 25895 202
29314 29349 179
7954 7891 190
34128 34200 236
38664 38607 213
30747 30777 179
97600 97640 178
50605 50546 203
98982 98939 284
66471 66555 268
67973 68049 237
14690 14763 271
19894 19977 212
85392 85355 188
83557 83649 258
89579 89532 240
60743 60709 211
96282 96231 191
92806 92782 209
96442 96529 266
34002 33978 205
49477 49460 159
70796 70829 219
84276 84298 196
44709 44639 270
84455 84451 152
40137 40071 275
479 422 129
65333 65321 193
50379 50309 265
17347 17320 173
3183 3220 168
38520 38425 231
80548 80610 214
12618 12681 201
90517 90444 240
80263 80235 258
54408 54379 216
24735 24827 264
15856 15897 147
98351 98399 266
35743 35815 218
2921 2913 217
96749 96664 222
36189 36146 187
18327 18395 186
70391 70483 188
11080 11138 237
6138 6084 187
48295 48349 221
9338 9419 198
99615 99585 235
28913 28987 210
50366 50400 234
43967 43874 270
32394 32453 267
24119 24165 189
34850 34780 205
41054 41148 213
8304 8275 159
30663 30737 254
78109 78051 170
79476 79510 245
8811 8833 172
77044 76959 351
